Base path: C:/Program Files/Unity/Editor/Data
Cmd: initializeCompiler
Cmd: compileComputeKernel
  api=4 insize=12733 outsize=1133 ok=1
Cmd: compileComputeKernel
  api=4 insize=65748 outsize=2597 ok=1
Cmd: compileComputeKernel
  api=4 insize=4631 outsize=1861 ok=1
Cmd: compileComputeKernel
  api=4 insize=24259 outsize=6201 ok=1
Cmd: compileComputeKernel
  api=4 insize=28420 outsize=1541 ok=1
Cmd: compileComputeKernel
  api=4 insize=28420 outsize=1621 ok=1
Cmd: compileComputeKernel
  api=4 insize=28420 outsize=1457 ok=1
Cmd: compileComputeKernel
  api=4 insize=28420 outsize=1305 ok=1
Cmd: compileComputeKernel
  api=4 insize=28420 outsize=1857 ok=1
Cmd: compileComputeKernel
  api=4 insize=28420 outsize=1337 ok=1
Cmd: compileComputeKernel
  api=4 insize=21203 outsize=813 ok=1
Cmd: compileComputeKernel
  api=4 insize=21203 outsize=701 ok=1
Cmd: compileComputeKernel
  api=4 insize=21203 outsize=1317 ok=1
Cmd: compileComputeKernel
  api=4 insize=21203 outsize=1397 ok=1
Cmd: compileComputeKernel
  api=4 insize=21203 outsize=1313 ok=1
Cmd: compileComputeKernel
  api=4 insize=21203 outsize=1293 ok=1
Cmd: compileComputeKernel
  api=4 insize=21203 outsize=1241 ok=1
Cmd: initializeCompiler
Cmd: initializeCompiler
Cmd: initializeCompiler
Cmd: initializeCompiler
Cmd: initializeCompiler
