Base path: '/home/victor/Unity/Hub/Editor/2019.2.9f1/Editor/Data', plugins path '/home/victor/Unity/Hub/Editor/2019.2.9f1/Editor/Data/PlaybackEngines'
Cmd: initializeCompiler
Cmd: compileComputeKernel
  api=15 insize=12270 outsize=3629 ok=1
Cmd: compileComputeKernel
  api=18 insize=12270 outsize=6471 ok=1
Cmd: compileComputeKernel
  api=18 insize=12270 outsize=6685 ok=1
Cmd: compileComputeKernel
  error: 1 plat 15 at Tensor.cginc(142): use of potentially uninitialized variable (ReadonlyTensor::SafeGet)
  api=15 insize=64076 outsize=25220 ok=1
Cmd: compileComputeKernel
  api=18 insize=64076 outsize=20179 ok=1
Cmd: compileComputeKernel
  api=15 insize=4482 outsize=4144 ok=1
Cmd: compileComputeKernel
  api=18 insize=4482 outsize=7243 ok=1
Cmd: compileComputeKernel
  api=15 insize=23621 outsize=25330 ok=1
Cmd: compileComputeKernel
  error: 1 plat 15 at Tensor.cginc(128): use of potentially uninitialized variable (ReadonlyTensor::SafeGet)
  api=15 insize=27408 outsize=5195 ok=1
Cmd: compileComputeKernel
  api=15 insize=27408 outsize=6534 ok=1
Cmd: compileComputeKernel
  api=15 insize=27408 outsize=3115 ok=1
Cmd: compileComputeKernel
  api=15 insize=27408 outsize=3814 ok=1
Cmd: compileComputeKernel
  api=15 insize=27408 outsize=3195 ok=1
Cmd: compileComputeKernel
  error: 1 plat 18 at Tensor.cginc(128): use of potentially uninitialized variable (ReadonlyTensor::SafeGet)
  api=18 insize=27408 outsize=11934 ok=1
Cmd: compileComputeKernel
  api=18 insize=27408 outsize=5581 ok=1
Cmd: compileComputeKernel
  api=18 insize=27408 outsize=5949 ok=1
Cmd: compileComputeKernel
  api=18 insize=27408 outsize=7719 ok=1
Cmd: compileComputeKernel
  api=18 insize=27408 outsize=5626 ok=1
Cmd: compileComputeKernel
  api=18 insize=1810 outsize=11250 ok=1
Cmd: compileComputeKernel
  api=15 insize=20360 outsize=2058 ok=1
Cmd: compileComputeKernel
  api=15 insize=20360 outsize=2110 ok=1
Cmd: compileComputeKernel
  api=15 insize=20360 outsize=3028 ok=1
Cmd: compileComputeKernel
  api=15 insize=20360 outsize=3226 ok=1
Cmd: compileComputeKernel
  api=15 insize=20360 outsize=3216 ok=1
Cmd: compileComputeKernel
  api=15 insize=20360 outsize=2999 ok=1
Cmd: compileComputeKernel
  api=18 insize=20360 outsize=2858 ok=1
Cmd: compileComputeKernel
  api=18 insize=20360 outsize=3187 ok=1
Cmd: compileComputeKernel
  api=18 insize=20360 outsize=5121 ok=1
Cmd: compileComputeKernel
  api=18 insize=20360 outsize=5690 ok=1
Cmd: compileComputeKernel
  api=18 insize=20360 outsize=5667 ok=1
Cmd: compileComputeKernel
  api=18 insize=20360 outsize=5084 ok=1
Cmd: compileComputeKernel
  api=18 insize=20360 outsize=6859 ok=1
Cmd: compileSnippet
  api=15 type=1 insize=11846 outsize=0 kw=SHADOWS_SPLIT_SPHERES pd=UNITY_ENABLE_REFLECTION_BUFFERS UNITY_USE_DITHER_MASK_FOR_ALPHABLENDED_SHADOWS UNITY_PBS_USE_BRDF1 UNITY_SPECCUBE_BOX_PROJECTION UNITY_SPECCUBE_BLENDING UNITY_ENABLE_DETAIL_NORMALMAP SHADER_API_DESKTOP UNITY_COLORSPACE_GAMMA UNITY_LIGHT_PROBE_PROXY_VOLUME UNITY_LIGHTMAP_FULL_HDR ok=1
Cmd: compileSnippet
  api=15 type=0 insize=1596 outsize=18076 kw=UNITY_PASS_FORWARDBASE DIRECTIONAL SHADOWS_SCREEN LIGHTPROBE_SH pd=UNITY_ENABLE_REFLECTION_BUFFERS UNITY_USE_DITHER_MASK_FOR_ALPHABLENDED_SHADOWS UNITY_PBS_USE_BRDF1 UNITY_SPECCUBE_BOX_PROJECTION UNITY_SPECCUBE_BLENDING UNITY_ENABLE_DETAIL_NORMALMAP SHADER_API_DESKTOP UNITY_COLORSPACE_GAMMA UNITY_LIGHT_PROBE_PROXY_VOLUME UNITY_LIGHTMAP_FULL_HDR ok=1
